{
  "animation": "zoomInLeft",
  "interval": 3500,
  "random": false,
  "effects": ["bounceInDown", "bounceOutRight", "fadeIn", "fadeInDown", "zoomIn", "zoomInUp", "zoomInLeft", "zoomInRight", "zoomInDown", "fadeInLeft", "fadeInRight", "flipInX", "flipInY", "lightSpeedIn", "rotateInDownLeft", "rotateInDownRight", "rotateInUpLeft", "rotateInUpRight", "slideInLeft", "slideInRight", "rubberBand"]
}
